Est_A.knit
…
aves.ch[,2:3]

## # A tibble: 21 x 2
##    ave_weighted names                                                           
##           <dbl> <chr>                                                           
##  1         0    Live animals; animals products                                  
##  2         0    Vegetable products                                              
##  3         0    Animal or vegetable fats and oils and products derived there fr~
##  4         0    Prepared foodstuffs; beverages, spirits and vinegar; tobacco an~
##  5         0    Mineral products                                                
##  6         9.15 Products of the chemical or allied industries                   
##  7        28.2  Plastics and rubber articles                                    
##  8        21.0  Hides and skins, articles of leather or animal gut, furskins    
##  9        48.9  Wood, cork, and articles thereof; manufactures of plaiting mate~
## 10         9.51 Pulp, paper and paperboard                                      
## # ... with 11 more rows
…
library(dplyr)

aves.dta %>% 
  group_by(aves.dta$gtap) %>% 
  summarise(ave_weighted= weighted.mean(NNeg, tradevalue, na.rm = TRUE))

## # A tibble: 45 x 2
##    `aves.dta$gtap` ave_weighted
##    <chr>                  <dbl>
##  1 ""                     NaN  
##  2 "b_t"                    0  
##  3 "c_b"                    0  
##  4 "cmt"                    0  
##  5 "coa"                    0  
##  6 "crp"                   15.9
##  7 "ctl"                    0  
##  8 "ele"                    0  
##  9 "ely"                    0  
## 10 "fmp"                   17.6
## # ... with 35 more rows
…
