Est_byChapterSector
…
## # A tibble: 21 x 2
##    ave_weighted names                                                           
##           <dbl> <chr>                                                           
##  1       -12.3  Live animals; animals products                                  
##  2       -33.9  Vegetable products                                              
##  3         0    Animal or vegetable fats and oils and products derived there fr~
##  4        -3.01 Prepared foodstuffs; beverages, spirits and vinegar; tobacco an~
##  5       -28.3  Mineral products                                                
##  6         5.28 Products of the chemical or allied industries                   
##  7        17.6  Plastics and rubber articles                                    
##  8       -13.3  Hides and skins, articles of leather or animal gut, furskins    
##  9        27.2  Wood, cork, and articles thereof; manufactures of plaiting mate~
## 10       -14.0  Pulp, paper and paperboard                                      
## # ... with 11 more rows
…
## # A tibble: 21 x 2
##    ave_weighted names                                                           
##           <dbl> <chr>                                                           
##  1        -8.86 Live animals; animals products                                  
##  2       -28.7  Vegetable products                                              
##  3        14.0  Animal or vegetable fats and oils and products derived there fr~
##  4         2.25 Prepared foodstuffs; beverages, spirits and vinegar; tobacco an~
##  5       -27.2  Mineral products                                                
##  6        23.1  Products of the chemical or allied industries                   
##  7        30.4  Plastics and rubber articles                                    
##  8        -4.94 Hides and skins, articles of leather or animal gut, furskins    
##  9        27.5  Wood, cork, and articles thereof; manufactures of plaiting mate~
## 10        -7.05 Pulp, paper and paperboard                                      
## # ... with 11 more rows
…
## # A tibble: 21 x 2
##    ave_weighted names                                                           
##           <dbl> <chr>                                                           
##  1         2.20 Live animals; animals products                                  
##  2       -34.6  Vegetable products                                              
##  3         0    Animal or vegetable fats and oils and products derived there fr~
##  4         6.40 Prepared foodstuffs; beverages, spirits and vinegar; tobacco an~
##  5       -17.8  Mineral products                                                
##  6        11.8  Products of the chemical or allied industries                   
##  7        27.9  Plastics and rubber articles                                    
##  8         5.62 Hides and skins, articles of leather or animal gut, furskins    
##  9        39.4  Wood, cork, and articles thereof; manufactures of plaiting mate~
## 10        -6.67 Pulp, paper and paperboard                                      
## # ... with 11 more rows
…
## # A tibble: 21 x 2
##    ave_weighted names                                                           
##           <dbl> <chr>                                                           
##  1        0     Live animals; animals products                                  
##  2      -28.4   Vegetable products                                              
##  3        0     Animal or vegetable fats and oils and products derived there fr~
##  4       -0.783 Prepared foodstuffs; beverages, spirits and vinegar; tobacco an~
##  5      -22.0   Mineral products                                                
##  6       11.2   Products of the chemical or allied industries                   
##  7       26.2   Plastics and rubber articles                                    
##  8        0     Hides and skins, articles of leather or animal gut, furskins    
##  9       25.5   Wood, cork, and articles thereof; manufactures of plaiting mate~
## 10       -8.14  Pulp, paper and paperboard                                      
## # ... with 11 more rows
…
## # A tibble: 21 x 2
##    ave_weighted names                                                           
##           <dbl> <chr>                                                           
##  1        18.5  Live animals; animals products                                  
##  2       -32.7  Vegetable products                                              
##  3         0    Animal or vegetable fats and oils and products derived there fr~
##  4       -18.7  Prepared foodstuffs; beverages, spirits and vinegar; tobacco an~
##  5         0    Mineral products                                                
##  6        10.6  Products of the chemical or allied industries                   
##  7        31.0  Plastics and rubber articles                                    
##  8        14.8  Hides and skins, articles of leather or animal gut, furskins    
##  9        48.0  Wood, cork, and articles thereof; manufactures of plaiting mate~
## 10        -6.30 Pulp, paper and paperboard                                      
## # ... with 11 more rows
…
## # A tibble: 21 x 2
##    ave_weighted names                                                           
##           <dbl> <chr>                                                           
##  1         0    Live animals; animals products                                  
##  2       -33.0  Vegetable products                                              
##  3         0    Animal or vegetable fats and oils and products derived there fr~
##  4       -16.9  Prepared foodstuffs; beverages, spirits and vinegar; tobacco an~
##  5         0    Mineral products                                                
##  6         9.37 Products of the chemical or allied industries                   
##  7        25.5  Plastics and rubber articles                                    
##  8         7.42 Hides and skins, articles of leather or animal gut, furskins    
##  9        30.3  Wood, cork, and articles thereof; manufactures of plaiting mate~
## 10       -12.0  Pulp, paper and paperboard                                      
## # ... with 11 more rows
…
